{
    "type": "service_account",
    "project_id": "testkeys-110044",
    "private_key_id": "23ecb974342473e425f395ddd5f8f787ac6be90d",
    "private_key": "-----BEGIN PRIVATE KEY-----\nMIIEvQIBADANBgkqhkiG9w0BAQEFAASCBKcwggSjAgEAAoIBAQC1Ah18OamHGpy2\n1xVuWEKCI2OkPovHqY33R6HUCKW690Bs0D7k81ZFmoHcafjTH3uOuZWFsMooBC3Q\neVgKw2RVDvPgsy6BswhumlVteuTti2eZIcmj/YIuEndLGH11HZuQevMTn3AupaHT\nEPoYb8eF926vSWQhAfcWBU3XF3to5jyEg5Qtny9GY+FY0mUhX7LBdnYnhqLKhM7S\nT5zFF4z/FDWYhbtfsmfU4g/hqjoB/7Fmwmz/ANVRKmQ8wLBA87dqIU2H4q1SewP+\ncCsrNLYIo4hV3pyJtlEHczFg5N+9wxMq6YYuMoUl+oPq9x/ixfSdqNVshv5DurG+\nFbgDH7VHAgMBAAECggEAUk126LAzVDoWfdCIbxb0jsXWnazO0+dVpNVOUOHpsXyR\nL6j0oBfA538cgwMwX5bWEIxz30kGcnGL/1ndXW+ApGhbHZV7lP+52siUBWa2xwf3\nABrr24P+eEJvOZcWHHVs8aHl+sspMByh2x3CCfBxcYmTK2Kcg6GoHrwkq6OCuqwJ\naOD3YfcJU9c9/k6V3YT8b8CVifCWReZlHizPWolBdi/LpIQiuGmjRmsK6dqmvAXX\nHndJcsFd1hUGtClSeZ8MOCySSjPVqFftiWet+H08OaX37Mj/h3prymGj++ArL0Mj\nKwST11+OGCZLqgWgyNavDI9IWWmGuaKhOK7vUjrRKQKBgQDhnN1sRhShvOkbWkle\nmkMI40E5qocho8zQV22I+wRl3Eg6/pp5GJAy9PRGWgxUjGa8+dIIjP1JVEqNpS7e\nhDW9Se4p8xGP4HEus0wfQZwJnG6+iRajh1bdFdC2rezRjsEQQ16aD3ZhEPCRLz6J\neRYXibW7iGV9oyGPfqmj69D3jQKBgQDNY0kzProBpw/NEYZVxyHwUMjVep4HyJUk\nAju1yx4fm0PBLVLLV0FyGf3xn9RkUuk+efWXMP/j/2SGw44EQsOdMjmqAURn74Dc\na80we4LLg51ebt29Q5zOhyfMV65LId6fK+TckirW06rbcM5S/M1ON8eFM90vviFw\nJ+YjSXORIwKBgBnMXC1zXgyYk3dDPbyJmzy678xuSYF5P4RbWvUc7wXOyJumXXeX\nbXXGOOCKj3pji6P0VSYRKS1nbBcCWnerWpHIkGlPmCSBn6+dZQj18afPsYIsHuCY\nK0Cgq/sXrErSLhVz/q9TMVAsJbYUVuxVYkdSwestz50sODw2WaOa5YxJAoGALPZe\nUPybZb8341HB0cdtM5nLzYgxTkzn8WEXxz13E74+v+x3IpKwfhUYlavCqE/KReYX\nEIkmi7gePq5SybX/8srK+t+aJRK2aAqlecagJINkkQa+Pi+uBTxrRv2u5z276aaH\nTI4nGK5vyehRErPLEiN95zgqZMg/s7jYVcM/rHcCgYEAyvR8yWanh9ZZO1dNYil6\nUKXP5B4/MHklaJtXJs88xkRV1+/8gtyPBeoUJwFNh6fDzLAdijhYID3R2O+cKYyk\nNTsPhxgB11sJy4EkVZrMbEb70LPtF2LlvLQp2nM/h/hCaEZ04yJ6KiKmPdlNlHRG\n8Ar37umH1zAk1jYmpmmb2pQ=\n-----END PRIVATE KEY-----\n",
    "client_email": "testservice@testkeys-110044.iam.gserviceaccount.com",
    "client_id": "160261660717236437172",
    "auth_uri": "https://accounts.google.com/o/oauth2/auth",
    "token_uri": "https://oauth2.googleapis.com/token",
    "auth_provider_x509_cert_url": "https://www.googleapis.com/oauth2/v1/certs",
    "client_x509_cert_url": "https://www.googleapis.com/robot/v1/metadata/x509/testservice%40testkeys-110044.iam.gserviceaccount.com"
  }
  